# slurm.conf file generated by configurator.html.
# Put this file on all nodes of your cluster.
# See the slurm.conf man page for more information.
#
SlurmctldHost=$HOSTPREFIX-0
#
AuthType=auth/munge
#DisableRootJobs=NO
#EnforcePartLimits=NO
#Epilog=
#EpilogSlurmctld=
#FirstJobId=1
#MaxJobId=999999
#GresTypes=
#GroupUpdateForce=0
#GroupUpdateTime=600
#JobFileAppend=0
#JobRequeue=1
#JobSubmitPlugins=
#KillOnBadExit=0
#LaunchType=launch/slurm
#Licenses=foo*4,bar
#MailProg=/bin/true
#MaxJobCount=5000
#MaxStepCount=40000
#MaxTasksPerNode=128
MpiDefault=pmix
#MpiParams=ports=#-#
#PluginDir=
#PlugStackConfig=
#PrivateData=jobs
ProctrackType=proctrack/linuxproc
#Prolog=
#PrologFlags=
#PrologSlurmctld=
#PropagatePrioProcess=0
#PropagateResourceLimits=
#PropagateResourceLimitsExcept=
#RebootProgram=
ReturnToService=1
#SallocDefaultCommand=
SlurmctldPidFile=/var/run/slurm/slurmctld.pid
SlurmctldPort=6817
SlurmdPidFile=/var/run/slurm/slurmd.pid
SlurmdPort=6818
SlurmdSpoolDir=/var/spool/slurm/d
SlurmUser=root
#SlurmdUser=root
#SrunEpilog=
#SrunProlog=
StateSaveLocation=/var/spool/slurm/ctld
SwitchType=switch/none
#TaskEpilog=
TaskPlugin=task/none
#TaskPluginParam=
#TaskProlog=
#TopologyPlugin=topology/tree
#TmpFS=/tmp
#TrackWCKey=no
#TreeWidth=
#UnkillableStepProgram=
#UsePAM=0
#
#
# TIMERS
#BatchStartTimeout=10
#CompleteWait=0
#EpilogMsgTime=2000
#GetEnvTimeout=2
#HealthCheckInterval=0
#HealthCheckProgram=
InactiveLimit=0
KillWait=30
#MessageTimeout=10
#ResvOverRun=0
MinJobAge=300
#OverTimeLimit=0
SlurmctldTimeout=120
SlurmdTimeout=300
#UnkillableStepTimeout=60
#VSizeFactor=0
Waittime=0
#
#
# SCHEDULING
#DefMemPerCPU=0
#FastSchedule=1
#MaxMemPerCPU=0
#SchedulerTimeSlice=30
SchedulerType=sched/backfill
SchedulerParameters=bf_interval=5
SelectType=select/linear
#SelectTypeParameters=
#
#
# JOB PRIORITY
#PriorityFlags=
#PriorityType=priority/basic
#PriorityDecayHalfLife=
#PriorityCalcPeriod=
#PriorityFavorSmall=
#PriorityMaxAge=
#PriorityUsageResetPeriod=
#PriorityWeightAge=
#PriorityWeightFairshare=
#PriorityWeightJobSize=
#PriorityWeightPartition=
#PriorityWeightQOS=
#
#
# LOGGING AND ACCOUNTING
#AccountingStorageEnforce=0
AccountingStorageHost=$HOSTPREFIX-0
# Set database password only in slurmdbd.conf if Munge is used
#AccountingStoragePass=
AccountingStoragePort=6819
AccountingStorageType=accounting_storage/slurmdbd
AccountingStorageUser=slurm
AccountingStoreJobComment=YES
ClusterName=cluster
#DebugFlags=
#JobCompHost=
#JobCompLoc=
#JobCompPass=
#JobCompPort=
JobCompType=jobcomp/none
#JobCompUser=
#JobContainerType=job_container/none
JobAcctGatherFrequency=30
JobAcctGatherType=jobacct_gather/linux
SlurmctldDebug=info
SlurmctldLogFile=/var/log/slurm/slurmctld.log
SlurmdDebug=info
SlurmdLogFile=/var/log/slurm/slurmd.log
#SlurmSchedLogFile=
#SlurmSchedLogLevel=
#
#
# POWER SAVE SUPPORT FOR IDLE NODES (optional)
#SuspendProgram=
#ResumeProgram=
#SuspendTimeout=
#ResumeTimeout=
#ResumeRate=
#SuspendExcNodes=
#SuspendExcParts=
#SuspendRate=
#SuspendTime=
#
#
# COMPUTE NODES
NodeName=$HOSTPREFIX-[1-31] CPUs=3
PartitionName=compute Nodes=$HOSTPREFIX-[1-31] Default=YES MaxTime=60 State=UP
